{
  "Tutorial_vcpa_steps_steps.fastq_directory_path": "/mnt/data/NGS/",
  "Tutorial_vcpa_steps.ref_alt": "/mnt/data/NGS/ref/hg38/GRCh38_full_analysis_set_plus_decoy_hla.fa.alt",
  "Tutorial_vcpa_steps.ref_amb": "/mnt/data/NGS/ref/hg38/GRCh38_full_analysis_set_plus_decoy_hla.fa.amb",
  "Tutorial_vcpa_steps.ref_ann": "/mnt/data/NGS/ref/hg38/GRCh38_full_analysis_set_plus_decoy_hla.fa.ann",
  "Tutorial_vcpa_steps.ref_bwt": "/mnt/data/NGS/ref/hg38/GRCh38_full_analysis_set_plus_decoy_hla.fa.bwt",
  "Tutorial_vcpa_steps.ref_pac": "/mnt/data/NGS/ref/hg38/GRCh38_full_analysis_set_plus_decoy_hla.fa.pac",
  "Tutorial_vcpa_steps.ref_sa": "/mnt/data/NGS/ref/hg38/GRCh38_full_analysis_set_plus_decoy_hla.fa.sa",
  "Tutorial_vcpa_steps.ref_fai": "/mnt/data/NGS/ref/hg38/GRCh38_full_analysis_set_plus_decoy_hla.fa.fai",
  "Tutorial_vcpa_steps.ref_dict": "/mnt/data/NGS/ref/hg38/GRCh38_full_analysis_set_plus_decoy_hla.dict",
  "Tutorial_vcpa_steps.input_bam": "/mnt/adsp/bam/ID.bam",
  "Tutorial_vcpa_steps.ref_fasta": "/mnt/data/NGS/ref/hg38/GRCh38_full_analysis_set_plus_decoy_hla.fa",
  "Tutorial_vcpa_steps.KNOWN": "/mnt/data/NGS/ref/hg38/Homo_sapiens_assembly38.known_indels.vcf.gz",
  "Tutorial_vcpa_steps.KNOWN_index": "/mnt/data/NGS/ref/hg38/Homo_sapiens_assembly38.known_indels.vcf.gz.tbi",
  "Tutorial_vcpa_steps.DBSNP": "/mnt/data/NGS/ref/hg38/Homo_sapiens_assembly38.dbsnp138.vcf.gz",
  "Tutorial_vcpa_steps.DBSNP_index": "/mnt/data/NGS/ref/hg38/Homo_sapiens_assembly38.dbsnp138.vcf.gz.tbi",
  "Tutorial_vcpa_steps.GOLD": "/mnt/data/NGS/ref/hg38/Mills_and_1000G_gold_standard.indels.hg38.vcf.gz",
  "Tutorial_vcpa_steps.GOLD_index": "/mnt/data/NGS/ref/hg38/Mills_and_1000G_gold_standard.indels.hg38.vcf.gz.tbi",
  "Tutorial_vcpa_steps.BWA": "/mnt/adsp/NGS/bin/bwa-git/bwa",
  "Tutorial_vcpa_steps.SAMBAMBA": "/mnt/adsp/NGS/bin/sambamba/sambamba",
  "Tutorial_vcpa_steps.SAMBLASTER": "/mnt/adsp/NGS/bin/samblaster/samblaster",
  "Tutorial_vcpa_steps.SAMTOOLS": "/mnt/adsp/NGS/bin/samtools/samtools",
  "Tutorial_vcpa_steps.PICARD": "/mnt/adsp/NGS/jar/picard-git/build/libs/picard.jar",
  "Tutorial_vcpa_steps.bamUtil": "/mnt/adsp/NGS/bin/bamUtil-1.0.14/bin/bam",
  "Tutorial_vcpa_steps.GATK": "/mnt/adsp/NGS/jar/gatk-3.7/GenomeAnalysisTK.jar",
  "Tutorial_vcpa_steps.tmp": "/mnt/adsp/bam/results",
  "Tutorial_vcpa_steps.log": "/mnt/adsp/bam/logs",
  "Tutorial_vcpa_steps.VCPA_LIB": "/mnt/adsp/vcpa-pipeline/VCPA",
  "Tutorial_vcpa_steps.THREADS": "2",
  "Tutorial_vcpa_steps.TARGET": "BED",
  "Tutorial_vcpa_steps.RG_results": "/mnt/adsp/bam/results",
  "Tutorial_vcpa_steps.chrs": ["chr1","chr2","chr3","chr4","chr5","chr6","chr7","chr8","chr9","chr10","chr11","chr12","chr13","chr14","chr15","chr16","chr17","chr18","chr19","chr20","chr21","chr22"]
}
