{
    "contigs": {
"chr1":{"length":248956422,   "tiledb_column_offset":0},
"chr2":{"length":242193529,   "tiledb_column_offset":248956422},
"chr3":{"length":198295559,   "tiledb_column_offset":491149951},
"chr4":{"length":190214555,   "tiledb_column_offset":689445510},
"chr5":{"length":181538259,   "tiledb_column_offset":879660065},
"chr6":{"length":170805979,  "tiledb_column_offset":1061198324},
"chr7":{"length":159345973,  "tiledb_column_offset":1232004303},
"chr8":{"length":145138636,  "tiledb_column_offset":1391350276},
"chr9":{"length":138394717,  "tiledb_column_offset":1536488912},
"chr10":{"length":133797422, "tiledb_column_offset":1674883629},
"chr11":{"length":135086622, "tiledb_column_offset":1808681051},
"chr12":{"length":133275309, "tiledb_column_offset":1943767673},
"chr13":{"length":114364328, "tiledb_column_offset":2077042982},
"chr14":{"length":107043718, "tiledb_column_offset":2191407310},
"chr15":{"length":101991189, "tiledb_column_offset":2298451028},
"chr16":{"length":90338345,  "tiledb_column_offset":2400442217},
"chr17":{"length":83257441,  "tiledb_column_offset":2490780562},
"chr18":{"length":80373285,  "tiledb_column_offset":2574038003},
"chr19":{"length":58617616,  "tiledb_column_offset":2654411288},
"chr20":{"length":64444167,  "tiledb_column_offset":2713028904},
"chr21":{"length":46709983,  "tiledb_column_offset":2777473071},
"chr22":{"length":50818468,  "tiledb_column_offset":2824183054},
"chrX":{"length":156040895,  "tiledb_column_offset":2875001522},
"chrY":{"length":57227415,   "tiledb_column_offset":3031042417},
"chrM":{"length":16569,      "tiledb_column_offset":3088269832}
    },
    "callset_mapping_file" : "callsets.json",
    "fields" : {
        "END":{ "vcf_field_class":["INFO"], "type":"int" },
        "BaseQRankSum":{ "vcf_field_class" : ["INFO"], "type":"float" },
        "ClippingRankSum":{ "vcf_field_class" : ["INFO"], "type":"float" },
        "ExcessHet":{ "vcf_field_class" : ["INFO"], "type":"float" },
        "MQRankSum":{ "vcf_field_class" : ["INFO"], "type":"float" },
        "RAW_MQ":{ "vcf_field_class" : ["INFO"], "type":"float" },
        "ReadPosRankSum":{ "vcf_field_class" : ["INFO"], "type":"float" },

        "DP": { "vcf_field_class":["INFO","FORMAT"], "type":"int" },
        "GT": { "vcf_field_class":["FORMAT"], "type":"int", "length":"P" },
        "AD": { "vcf_field_class":["FORMAT"], "type":"int", "length":"R" },

        "GQ":    { "vcf_field_class" : ["FORMAT"], "type":"int" },
        "MIN_DP":{ "vcf_field_class" : ["FORMAT"], "type":"int" },
        "PGT":{ "vcf_field_class" : ["FORMAT"], "type":"string" },
        "PID":{ "vcf_field_class" : ["FORMAT"], "type":"string" },

        "PL": { "vcf_field_class":["FORMAT"], "type":"int", "length":"G" },
        "SB":{ "vcf_field_class" : ["FORMAT"], "type":"int", "length":4 }
    }
}
